<svg width="32" height="33" viewBox="0 0 32 33" fill="none" xmlns="http://www.w3.org/2000/svg">
<path d="M16 20.4726L22.5956 25.2726L20.0711 17.5215L26.6667 12.8281H18.5778L16 4.82812L13.4222 12.8281H5.33334L11.9289 17.5215L9.40445 25.2726L16 20.4726Z" fill="#2A3659" fill-opacity="0.2"/>
</svg>
