<svg width="22" height="25" viewBox="0 0 22 25" fill="none" xmlns="http://www.w3.org/2000/svg">
<path fill-rule="evenodd" clip-rule="evenodd" d="M14.4467 2.64282H19.5556C20.9 2.64282 22 3.71695 22 5.02978V21.7385C22 23.0513 20.9 24.1255 19.5556 24.1255H2.44444C1.1 24.1255 0 23.0513 0 21.7385V5.02978C0 3.71695 1.1 2.64282 2.44444 2.64282H7.55333C8.06667 1.25838 9.41111 0.255859 11 0.255859C12.5889 0.255859 13.9333 1.25838 14.4467 2.64282ZM12.2222 3.8363C12.2222 3.17989 11.6722 2.64282 11 2.64282C10.3278 2.64282 9.77778 3.17989 9.77778 3.8363C9.77778 4.49271 10.3278 5.02978 11 5.02978C11.6722 5.02978 12.2222 4.49271 12.2222 3.8363ZM11 7.41674C13.0289 7.41674 14.6667 9.016 14.6667 10.9972C14.6667 12.9784 13.0289 14.5776 11 14.5776C8.97111 14.5776 7.33333 12.9784 7.33333 10.9972C7.33333 9.016 8.97111 7.41674 11 7.41674ZM3.66667 20.0676V21.7385H18.3333V20.0676C18.3333 17.6807 13.4444 16.3678 11 16.3678C8.55556 16.3678 3.66667 17.6807 3.66667 20.0676Z" fill="#2A3659"/>
</svg>
