<svg width="32" height="33" viewBox="0 0 32 33" fill="none" xmlns="http://www.w3.org/2000/svg">
<path d="M17.3333 4.76172C10.7067 4.76172 5.33334 10.1351 5.33334 16.7617H1.33334L6.52001 21.9484L6.61334 22.1351L12 16.7617H8.00001C8.00001 11.6017 12.1733 7.42839 17.3333 7.42839C22.4933 7.42839 26.6667 11.6017 26.6667 16.7617C26.6667 21.9217 22.4933 26.0951 17.3333 26.0951C14.76 26.0951 12.4267 25.0417 10.7467 23.3484L8.85334 25.2417C11.0267 27.4151 14.0133 28.7617 17.3333 28.7617C23.96 28.7617 29.3333 23.3884 29.3333 16.7617C29.3333 10.1351 23.96 4.76172 17.3333 4.76172ZM16 11.4284V18.0951L21.7067 21.4817L22.6667 19.8684L18 17.0951V11.4284H16Z" fill="#5D5D5D" fill-opacity="0.2"/>
</svg>
