<svg width="27" height="27" viewBox="0 0 27 27" fill="none" xmlns="http://www.w3.org/2000/svg">
<path d="M11.6686 22.2917V15.7917H16.002V22.2917H21.4186V13.625H24.6686L13.8353 3.875L3.00195 13.625H6.25195V22.2917H11.6686Z" fill="#2A3659"/>
</svg>
