<svg width="20" height="19" viewBox="0 0 20 19" fill="none" xmlns="http://www.w3.org/2000/svg">
<path d="M10 18.7465L8.55 17.4265C3.4 12.7565 0 9.67648 0 5.89648C0 2.81648 2.42 0.396484 5.5 0.396484C7.24 0.396484 8.91 1.20648 10 2.48648C11.09 1.20648 12.76 0.396484 14.5 0.396484C17.58 0.396484 20 2.81648 20 5.89648C20 9.67648 16.6 12.7565 11.45 17.4365L10 18.7465Z" fill="#5D5D5D" fill-opacity="0.2"/>
</svg>
