<svg width="20" height="19" viewBox="0 0 20 19" fill="none" xmlns="http://www.w3.org/2000/svg">
<path d="M4.06669 8.38392C5.63408 11.2331 8.15931 13.5588 11.2397 15.0187L13.6343 12.8037C13.9281 12.5319 14.3635 12.4413 14.7445 12.5621C15.9636 12.9346 17.2806 13.136 18.6303 13.136C19.229 13.136 19.7188 13.589 19.7188 14.1428V17.6565C19.7188 18.2102 19.229 18.6633 18.6303 18.6633C8.40965 18.6633 0.126465 11.0016 0.126465 1.54781C0.126465 0.994072 0.616272 0.541016 1.21493 0.541016H5.02454C5.62319 0.541016 6.113 0.994072 6.113 1.54781C6.113 2.8063 6.33069 4.01444 6.73342 5.14205C6.85315 5.49443 6.76608 5.88708 6.46131 6.16898L4.06669 8.38392Z" fill="#2A3659"/>
</svg>
