<svg width="22" height="23" viewBox="0 0 22 23" fill="none" xmlns="http://www.w3.org/2000/svg">
<path d="M11 7.66309C8.79 7.66309 7 9.45309 7 11.6631C7 13.8731 8.79 15.6631 11 15.6631C13.21 15.6631 15 13.8731 15 11.6631C15 9.45309 13.21 7.66309 11 7.66309ZM19.94 10.6631C19.48 6.49309 16.17 3.18309 12 2.72309V0.663086H10V2.72309C5.83 3.18309 2.52 6.49309 2.06 10.6631H0V12.6631H2.06C2.52 16.8331 5.83 20.1431 10 20.6031V22.6631H12V20.6031C16.17 20.1431 19.48 16.8331 19.94 12.6631H22V10.6631H19.94ZM11 18.6631C7.13 18.6631 4 15.5331 4 11.6631C4 7.79309 7.13 4.66309 11 4.66309C14.87 4.66309 18 7.79309 18 11.6631C18 15.5331 14.87 18.6631 11 18.6631Z" fill="#2A3659"/>
</svg>
