<svg width="14" height="15" viewBox="0 0 14 15" fill="none" xmlns="http://www.w3.org/2000/svg">
<path d="M13.2997 1.25758C12.9097 0.867578 12.2797 0.867578 11.8897 1.25758L6.99973 6.13758L2.10973 1.24758C1.71973 0.857578 1.08973 0.857578 0.699727 1.24758C0.309727 1.63758 0.309727 2.26758 0.699727 2.65758L5.58973 7.54758L0.699727 12.4376C0.309727 12.8276 0.309727 13.4576 0.699727 13.8476C1.08973 14.2376 1.71973 14.2376 2.10973 13.8476L6.99973 8.95758L11.8897 13.8476C12.2797 14.2376 12.9097 14.2376 13.2997 13.8476C13.6897 13.4576 13.6897 12.8276 13.2997 12.4376L8.40973 7.54758L13.2997 2.65758C13.6797 2.27758 13.6797 1.63758 13.2997 1.25758Z" fill="#A61F56"/>
</svg>
