<svg width="29" height="12" viewBox="0 0 29 12" fill="none" xmlns="http://www.w3.org/2000/svg">
<path d="M21.1377 8.24059H6.61719V9.07386H21.1377C21.7613 9.07386 22.1733 9.40542 22.1733 9.90713C22.1733 10.4088 21.7613 10.7403 21.1377 10.7403C20.5142 10.7403 20.1021 10.4087 20.1021 9.90704H19.0665C19.0665 10.8232 19.999 11.5736 21.1377 11.5736C22.2763 11.5736 23.2089 10.8232 23.2089 9.90704C23.2089 8.99088 22.2764 8.24059 21.1377 8.24059Z" fill="#2A3659"/>
<path d="M19.0624 3.23258C19.0624 1.81472 17.7124 0.728416 15.9502 0.728416C14.188 0.728416 12.8378 1.81472 12.8378 3.23258H13.8789C13.8789 2.31642 14.8115 1.56605 15.9502 1.56605C17.0888 1.56605 18.0214 2.31642 18.0214 3.23258C18.0214 4.14874 17.0888 4.89911 15.9502 4.89911H3.51172V5.73674H15.9556C17.7178 5.73674 19.0624 4.65044 19.0624 3.23258Z" fill="#2A3659"/>
<path d="M24.2451 0.728416C21.9623 0.728416 20.0972 2.22917 20.0972 4.06585H21.1328C21.1328 2.64798 22.4829 1.56168 24.2451 1.56168C26.0073 1.56168 27.3573 2.64798 27.3573 4.06585C27.3573 5.48371 26.0073 6.57001 24.2451 6.57001H0.398438V7.40327H24.2505C26.5332 7.40327 28.3984 5.90252 28.3984 4.06585C28.3984 2.22917 26.5278 0.728416 24.2451 0.728416Z" fill="#2A3659"/>
</svg>
