<svg width="18" height="17" viewBox="0 0 18 17" fill="none" xmlns="http://www.w3.org/2000/svg">
<path d="M9.05047 0.597656L7.624 2.00766L13.2692 7.59766H0.957031V9.59766H13.2692L7.624 15.1877L9.05047 16.5977L17.1439 8.59766L9.05047 0.597656Z" fill="#5D5D5D"/>
</svg>
